<svg width="190" height="240" viewBox="0 0 190 240" fill="none" xmlns="http://www.w3.org/2000/svg">
<g clip-path="url(#clip0)">
<rect width="188.64" height="238.944" transform="translate(0.559937 0.575928)" fill="white"/>
<line x1="1.08385" y1="225.896" x2="1.08386" y2="20.4877" stroke="#C8C8C8" stroke-width="1.048"/>
<path d="M25.2705 200.93H23.1612V197.784H14.7324V200.93H12.5879L12.5176 196.008H13.5459C14.0557 195.516 14.4629 194.801 14.7676 193.864C15.0723 192.921 15.2686 191.854 15.3565 190.665L15.6905 184.987H23.7588V196.008H25.3848L25.2705 200.93ZM16.0596 196.008H21.544V186.78H17.8086L17.5977 190.383C17.4395 192.792 16.9268 194.667 16.0596 196.008ZM26.4483 192.941C26.4483 192.009 26.6328 191.172 27.002 190.427C27.3711 189.677 27.8897 189.103 28.5576 188.705C29.2256 188.3 29.9932 188.098 30.8604 188.098C32.1436 188.098 33.1836 188.511 33.9805 189.338C34.7832 190.164 35.2168 191.259 35.2813 192.625L35.2901 193.126C35.2901 194.063 35.1084 194.901 34.7451 195.639C34.3877 196.378 33.8721 196.949 33.1983 197.353C32.5303 197.757 31.7569 197.96 30.878 197.96C29.5362 197.96 28.461 197.514 27.6524 196.624C26.8496 195.727 26.4483 194.535 26.4483 193.047V192.941ZM28.584 193.126C28.584 194.104 28.7862 194.872 29.1905 195.428C29.5947 195.979 30.1572 196.255 30.878 196.255C31.5987 196.255 32.1582 195.973 32.5567 195.411C32.961 194.848 33.1631 194.025 33.1631 192.941C33.1631 191.98 32.9551 191.218 32.5391 190.656C32.1289 190.093 31.5694 189.812 30.8604 189.812C30.1631 189.812 29.6094 190.09 29.1992 190.647C28.7891 191.198 28.584 192.024 28.584 193.126ZM41.5742 188.801C42.7696 188.801 43.7276 189.203 44.4483 190.005C45.169 190.802 45.5293 191.886 45.5293 193.257V193.363C45.5293 194.734 45.1367 195.844 44.3516 196.694C43.5723 197.544 42.5117 197.968 41.1699 197.968C39.8633 197.968 38.8086 197.535 38.0059 196.668C37.2031 195.8 36.8018 194.617 36.8018 193.117V192.502C36.8018 190.451 37.1651 188.828 37.8916 187.632C38.6182 186.437 39.7022 185.69 41.1436 185.391C41.9522 185.227 42.4737 185.054 42.708 184.873C42.9483 184.685 43.0684 184.433 43.0684 184.117H44.791C44.791 184.709 44.6944 185.189 44.501 185.558C44.3076 185.927 44.0117 186.229 43.6133 186.464C43.2149 186.692 42.5293 186.909 41.5567 187.114C40.666 187.301 39.9864 187.635 39.5176 188.116C39.0547 188.596 38.7442 189.261 38.586 190.111C39.4356 189.238 40.4317 188.801 41.5742 188.801ZM41.1524 190.515C40.461 190.515 39.919 190.75 39.5264 191.218C39.1338 191.681 38.9375 192.396 38.9375 193.363C38.9375 194.277 39.1309 194.989 39.5176 195.499C39.9043 196.008 40.4551 196.263 41.1699 196.263C41.8789 196.263 42.4268 196.008 42.8135 195.499C43.2061 194.983 43.4024 194.21 43.4024 193.178C43.4024 192.358 43.2061 191.711 42.8135 191.236C42.4268 190.755 41.8731 190.515 41.1524 190.515ZM52.8858 197.784C52.792 197.602 52.71 197.306 52.6397 196.896C51.96 197.605 51.128 197.96 50.1436 197.96C49.1885 197.96 48.4092 197.687 47.8057 197.142C47.2022 196.597 46.9004 195.923 46.9004 195.121C46.9004 194.107 47.2754 193.331 48.0254 192.792C48.7813 192.247 49.8594 191.974 51.2598 191.974H52.5694V191.35C52.5694 190.858 52.4317 190.465 52.1563 190.172C51.8809 189.874 51.4619 189.724 50.8994 189.724C50.4131 189.724 50.0147 189.847 49.7041 190.093C49.3936 190.334 49.2383 190.641 49.2383 191.016H47.1026C47.1026 190.495 47.2754 190.008 47.6211 189.557C47.9668 189.1 48.4356 188.743 49.0274 188.485C49.625 188.227 50.2901 188.098 51.0225 188.098C52.1358 188.098 53.0235 188.38 53.6856 188.942C54.3477 189.499 54.6875 190.284 54.7051 191.297V195.587C54.7051 196.442 54.8252 197.125 55.0655 197.634V197.784H52.8858ZM50.5391 196.246C50.961 196.246 51.3565 196.143 51.7256 195.938C52.1006 195.733 52.3819 195.458 52.5694 195.112V193.319H51.418C50.627 193.319 50.0322 193.457 49.6338 193.732C49.2354 194.007 49.0362 194.397 49.0362 194.901C49.0362 195.311 49.1709 195.639 49.4405 195.885C49.7158 196.126 50.0821 196.246 50.5391 196.246ZM57.1045 197.784V188.274H60.9629C62.2637 188.274 63.2539 188.503 63.9336 188.96C64.6133 189.411 64.9531 190.061 64.9531 190.911C64.9531 191.35 64.8155 191.746 64.5401 192.097C64.2705 192.443 63.8692 192.71 63.336 192.897C63.9571 193.026 64.4492 193.287 64.8125 193.679C65.1758 194.072 65.3574 194.535 65.3574 195.068C65.3574 195.953 65.0293 196.627 64.3731 197.089C63.7227 197.552 62.7852 197.784 61.5606 197.784H57.1045ZM59.2403 193.732V196.096H61.5781C62.6739 196.096 63.2217 195.704 63.2217 194.919C63.2217 194.128 62.6651 193.732 61.5518 193.732H59.2403ZM59.2403 192.203H60.9981C62.211 192.203 62.8174 191.845 62.8174 191.13C62.8174 190.38 62.2432 189.994 61.0947 189.97H59.2403V192.203ZM69.4004 191.297H71.4922C72.2715 191.297 72.9512 191.432 73.5313 191.702C74.1114 191.971 74.5508 192.349 74.8496 192.836C75.1543 193.322 75.3067 193.887 75.3067 194.532C75.3067 195.51 74.961 196.296 74.2696 196.887C73.5781 197.479 72.6582 197.778 71.5098 197.784H67.2647V188.274H69.4004V191.297ZM69.4004 193.011V196.079H71.4834C72.0049 196.079 72.4151 195.95 72.7139 195.692C73.0186 195.428 73.1709 195.056 73.1709 194.576C73.1709 194.095 73.0215 193.717 72.7227 193.442C72.4297 193.161 72.0313 193.017 71.5274 193.011H69.4004ZM83.1817 189.97H80.0967V197.784H77.961V189.97H74.9112V188.274H83.1817V189.97ZM88.2354 197.96C86.8819 197.96 85.7832 197.535 84.9395 196.685C84.1016 195.83 83.6826 194.693 83.6826 193.275V193.011C83.6826 192.062 83.8643 191.215 84.2276 190.471C84.5967 189.721 85.1123 189.138 85.7744 188.722C86.4365 188.306 87.1748 188.098 87.9893 188.098C89.2842 188.098 90.2832 188.511 90.9864 189.338C91.6953 190.164 92.0498 191.333 92.0498 192.844V193.706H85.836C85.9004 194.491 86.1612 195.112 86.6182 195.569C87.0811 196.026 87.6612 196.255 88.3584 196.255C89.3369 196.255 90.1338 195.859 90.749 195.068L91.9004 196.167C91.5196 196.735 91.0098 197.177 90.3711 197.494C89.7383 197.804 89.0264 197.96 88.2354 197.96ZM87.9805 189.812C87.3946 189.812 86.9199 190.017 86.5567 190.427C86.1992 190.838 85.9707 191.409 85.8711 192.141H89.9405V191.983C89.8936 191.268 89.7031 190.729 89.3692 190.366C89.0352 189.997 88.5723 189.812 87.9805 189.812ZM98.2373 196.079C98.8291 195.417 99.2246 194.79 99.4239 194.198C99.6289 193.6 99.752 192.839 99.793 191.913L99.916 188.274H106.517V196.079H107.835V200.614H105.708V197.784H99.6084V200.614H97.4463L97.4551 196.079H98.2373ZM100.742 196.079H104.39V190.111H101.99L101.929 191.93C101.847 193.676 101.451 195.059 100.742 196.079ZM115.042 197.784C114.948 197.602 114.866 197.306 114.796 196.896C114.116 197.605 113.284 197.96 112.3 197.96C111.345 197.96 110.565 197.687 109.962 197.142C109.358 196.597 109.057 195.923 109.057 195.121C109.057 194.107 109.432 193.331 110.182 192.792C110.938 192.247 112.016 191.974 113.416 191.974H114.726V191.35C114.726 190.858 114.588 190.465 114.313 190.172C114.037 189.874 113.618 189.724 113.056 189.724C112.569 189.724 112.171 189.847 111.86 190.093C111.55 190.334 111.395 190.641 111.395 191.016H109.259C109.259 190.495 109.432 190.008 109.777 189.557C110.123 189.1 110.592 188.743 111.184 188.485C111.781 188.227 112.446 188.098 113.179 188.098C114.292 188.098 115.18 188.38 115.842 188.942C116.504 189.499 116.844 190.284 116.861 191.297V195.587C116.861 196.442 116.981 197.125 117.222 197.634V197.784H115.042ZM112.695 196.246C113.117 196.246 113.513 196.143 113.882 195.938C114.257 195.733 114.538 195.458 114.726 195.112V193.319H113.574C112.783 193.319 112.188 193.457 111.79 193.732C111.392 194.007 111.192 194.397 111.192 194.901C111.192 195.311 111.327 195.639 111.597 195.885C111.872 196.126 112.238 196.246 112.695 196.246ZM127.153 197.784H125.018V193.943H121.317V197.784H119.182V188.274H121.317V192.238H125.018V188.274H127.153V197.784ZM137.489 197.784H135.354V193.943H131.653V197.784H129.518V188.274H131.653V192.238H135.354V188.274H137.489V197.784ZM142.068 191.297H144.16C144.939 191.297 145.619 191.432 146.199 191.702C146.779 191.971 147.219 192.349 147.518 192.836C147.822 193.322 147.975 193.887 147.975 194.532C147.975 195.51 147.629 196.296 146.938 196.887C146.246 197.479 145.326 197.778 144.178 197.784H139.933V188.274H142.068V191.297ZM151.692 197.784H149.557V188.274H151.692V197.784ZM142.068 193.011V196.079H144.151C144.673 196.079 145.083 195.95 145.382 195.692C145.687 195.428 145.839 195.056 145.839 194.576C145.839 194.095 145.689 193.717 145.391 193.442C145.098 193.161 144.699 193.017 144.195 193.011H142.068ZM158.442 197.96C157.089 197.96 155.99 197.535 155.147 196.685C154.309 195.83 153.89 194.693 153.89 193.275V193.011C153.89 192.062 154.071 191.215 154.435 190.471C154.804 189.721 155.319 189.138 155.981 188.722C156.644 188.306 157.382 188.098 158.196 188.098C159.491 188.098 160.49 188.511 161.193 189.338C161.902 190.164 162.257 191.333 162.257 192.844V193.706H156.043C156.107 194.491 156.368 195.112 156.825 195.569C157.288 196.026 157.868 196.255 158.565 196.255C159.544 196.255 160.341 195.859 160.956 195.068L162.107 196.167C161.727 196.735 161.217 197.177 160.578 197.494C159.945 197.804 159.233 197.96 158.442 197.96ZM158.188 189.812C157.602 189.812 157.127 190.017 156.764 190.427C156.406 190.838 156.178 191.409 156.078 192.141H160.147V191.983C160.101 191.268 159.91 190.729 159.576 190.366C159.242 189.997 158.779 189.812 158.188 189.812ZM168.005 192.941C168.005 192.009 168.189 191.172 168.559 190.427C168.928 189.677 169.446 189.103 170.114 188.705C170.782 188.3 171.55 188.098 172.417 188.098C173.7 188.098 174.74 188.511 175.537 189.338C176.34 190.164 176.773 191.259 176.838 192.625L176.847 193.126C176.847 194.063 176.665 194.901 176.302 195.639C175.944 196.378 175.429 196.949 174.755 197.353C174.087 197.757 173.314 197.96 172.435 197.96C171.093 197.96 170.018 197.514 169.209 196.624C168.406 195.727 168.005 194.535 168.005 193.047V192.941ZM170.141 193.126C170.141 194.104 170.343 194.872 170.747 195.428C171.151 195.979 171.714 196.255 172.435 196.255C173.155 196.255 173.715 195.973 174.113 195.411C174.518 194.848 174.72 194.025 174.72 192.941C174.72 191.98 174.512 191.218 174.096 190.656C173.686 190.093 173.126 189.812 172.417 189.812C171.72 189.812 171.166 190.09 170.756 190.647C170.346 191.198 170.141 192.024 170.141 193.126ZM69.4619 218.784H67.3262V210.997H63.6172V218.784H61.4815V209.274H69.4619V218.784ZM71.334 213.941C71.334 213.009 71.5186 212.172 71.8877 211.427C72.2569 210.677 72.7754 210.103 73.4434 209.705C74.1114 209.3 74.8789 209.098 75.7461 209.098C77.0293 209.098 78.0694 209.511 78.8662 210.338C79.669 211.164 80.1026 212.259 80.167 213.625L80.1758 214.126C80.1758 215.063 79.9942 215.901 79.6309 216.639C79.2735 217.378 78.7578 217.949 78.084 218.353C77.416 218.757 76.6426 218.96 75.7637 218.96C74.4219 218.96 73.3467 218.514 72.5381 217.624C71.7354 216.727 71.334 215.535 71.334 214.047V213.941ZM73.4697 214.126C73.4697 215.104 73.6719 215.872 74.0762 216.428C74.4805 216.979 75.043 217.255 75.7637 217.255C76.4844 217.255 77.044 216.973 77.4424 216.411C77.8467 215.848 78.0489 215.025 78.0489 213.941C78.0489 212.98 77.8408 212.218 77.4248 211.656C77.0147 211.093 76.4551 210.812 75.7461 210.812C75.0489 210.812 74.4951 211.09 74.085 211.647C73.6748 212.198 73.4697 213.024 73.4697 214.126ZM85.3614 215.022H84.2803V218.784H82.1446V209.274H84.2803V213.071H85.2207L87.8487 209.274H90.4854L87.0489 213.827L90.7754 218.784H87.9981L85.3614 215.022ZM95.2754 215.725L97.209 209.274H99.4854L95.7061 220.225C95.126 221.825 94.1416 222.625 92.753 222.625C92.4424 222.625 92.0996 222.572 91.7246 222.466V220.814L92.1289 220.84C92.668 220.84 93.0723 220.741 93.3418 220.542C93.6172 220.348 93.834 220.02 93.9922 219.557L94.2998 218.74L90.96 209.274H93.2627L95.2754 215.725ZM108.784 218.784H106.648V210.997H102.939V218.784H100.804V209.274H108.784V218.784ZM114.436 215.022H113.355V218.784H111.219V209.274H113.355V213.071H114.295L116.923 209.274H119.56L116.123 213.827L119.85 218.784H117.072L114.436 215.022ZM125.07 218.96C123.717 218.96 122.618 218.535 121.774 217.685C120.937 216.83 120.518 215.693 120.518 214.275V214.011C120.518 213.062 120.699 212.215 121.063 211.471C121.432 210.721 121.947 210.138 122.609 209.722C123.272 209.306 124.01 209.098 124.824 209.098C126.119 209.098 127.118 209.511 127.821 210.338C128.53 211.164 128.885 212.333 128.885 213.844V214.706H122.671C122.735 215.491 122.996 216.112 123.453 216.569C123.916 217.026 124.496 217.255 125.193 217.255C126.172 217.255 126.969 216.859 127.584 216.068L128.735 217.167C128.355 217.735 127.845 218.177 127.206 218.494C126.573 218.804 125.861 218.96 125.07 218.96ZM124.815 210.812C124.23 210.812 123.755 211.017 123.392 211.427C123.034 211.838 122.806 212.409 122.706 213.141H126.775V212.983C126.729 212.268 126.538 211.729 126.204 211.366C125.87 210.997 125.407 210.812 124.815 210.812Z" fill="#353535"/>
<rect x="33.0479" y="43.5438" width="129.952" height="123.664" rx="6.288" fill="#F2F6FB" stroke="#E6EBF5" stroke-width="2.096"/>
<path d="M38.4635 62.3364L42.4324 62.337C42.666 62.337 42.8554 62.5264 42.8553 62.7601L42.8551 64.324C42.8551 64.5577 42.6656 64.747 42.432 64.747L38.4631 64.7464C38.2295 64.7464 38.0401 64.5569 38.0402 64.3233L38.0404 62.7593C38.0404 62.5257 38.2299 62.3363 38.4635 62.3364ZM140.781 62.352L157.991 62.3547C158.225 62.3547 158.414 62.5441 158.414 62.7778L158.414 64.3417C158.414 64.5754 158.224 64.7647 157.991 64.7647L140.781 64.7621C140.547 64.762 140.358 64.5726 140.358 64.339L140.358 62.775C140.358 62.5414 140.547 62.352 140.781 62.352ZM108.28 62.3471L125.49 62.3497C125.724 62.3497 125.913 62.5392 125.913 62.7728L125.913 64.3368C125.913 64.5704 125.723 64.7598 125.49 64.7597L108.28 64.7571C108.046 64.7571 107.857 64.5676 107.857 64.334L107.857 62.77C107.857 62.5364 108.046 62.347 108.28 62.3471ZM128.744 62.3502L137.527 62.3515C137.761 62.3516 137.95 62.541 137.95 62.7746L137.95 64.3386C137.95 64.5722 137.761 64.7616 137.527 64.7616L128.743 64.7602C128.51 64.7602 128.32 64.5708 128.32 64.3371L128.321 62.7732C128.321 62.5395 128.51 62.3502 128.744 62.3502Z" fill="#D8DEED"/>
<path d="M77.2631 78.8309L48.4635 78.8265C47.6925 78.8264 47.0673 79.4513 47.0672 80.2223L47.0585 137.476C47.0583 138.247 47.6833 138.872 48.4543 138.873L77.2539 138.877C78.0249 138.877 78.65 138.252 78.6501 137.481L78.6589 80.2272C78.659 79.4562 78.0341 78.831 77.2631 78.8309Z" fill="#D8DEED"/>
<path d="M63.0565 136.886C64.2868 136.886 65.2842 135.907 65.2844 134.699C65.2846 133.491 64.2874 132.512 63.0571 132.512C61.8269 132.512 60.8294 133.491 60.8292 134.698C60.829 135.906 61.8262 136.886 63.0565 136.886Z" fill="#F2F6FB"/>
<path d="M64.6963 82.4078L61.434 82.4073C61.1046 82.4073 60.8375 82.6743 60.8374 83.0037C60.8374 83.3331 61.1044 83.6002 61.4338 83.6003L64.6961 83.6008C65.0255 83.6008 65.2926 83.3338 65.2927 83.0044C65.2927 82.675 65.0257 82.4079 64.6963 82.4078Z" fill="#F2F6FB"/>
<path d="M76.2282 85.5906L49.4968 85.5865L49.4898 131.715L76.2212 131.719L76.2282 85.5906Z" fill="#F2F6FB"/>
<path d="M63.4798 113.048L57.233 113.047C57.0792 113.047 57.0228 112.943 57.1068 112.814L61.3786 106.274C61.4627 106.145 61.6013 106.142 61.6896 106.27L64.7669 110.759L66.0633 108.762C66.147 108.633 66.2883 108.627 66.3818 108.753L69.4146 112.823C69.5068 112.947 69.458 113.049 69.3032 113.05L66.6012 113.075L63.4798 113.048ZM66.2017 107.253C65.6523 107.253 65.207 106.824 65.2071 106.296C65.2071 105.767 65.6526 105.339 66.202 105.339C66.7514 105.339 67.1967 105.768 67.1966 106.296C67.1965 106.825 66.7511 107.253 66.2017 107.253Z" fill="#D8DEED"/>
<path d="M91.4234 95.1009L145.949 95.1092C146.183 95.1093 146.372 95.2987 146.372 95.5323L146.372 99.5063C146.371 99.74 146.182 99.9294 145.948 99.9293L91.4227 99.921C91.189 99.9209 90.9997 99.7315 90.9997 99.4979L91.0003 95.5239C91.0003 95.2902 91.1898 95.1009 91.4234 95.1009ZM91.4222 102.934L124.883 102.939C125.116 102.939 125.306 103.128 125.306 103.362L125.305 107.336C125.305 107.569 125.115 107.759 124.882 107.759L91.4215 107.754C91.1878 107.754 90.9985 107.564 90.9985 107.33L90.9991 103.356C90.9991 103.123 91.1886 102.933 91.4222 102.934ZM91.421 110.766L137.521 110.773C137.754 110.773 137.944 110.963 137.944 111.196L137.943 115.17C137.943 115.404 137.754 115.593 137.52 115.593L91.4203 115.586C91.1866 115.586 90.9973 115.397 90.9973 115.163L90.9979 111.189C90.9979 110.955 91.1874 110.766 91.421 110.766Z" fill="#E1E5F0"/>
<path d="M136.321 87.2756L91.4251 87.2687C91.1915 87.2687 91.002 87.4581 91.002 87.6917L91.0014 91.6657C91.0014 91.8993 91.1907 92.0888 91.4244 92.0888L136.32 92.0957C136.554 92.0957 136.743 91.9063 136.743 91.6727L136.744 87.6987C136.744 87.4651 136.555 87.2757 136.321 87.2756Z" fill="#D8DEED"/>
<path d="M95.0005 123.419L117.086 123.423C118.424 123.423 118.95 123.57 119.467 123.847C119.984 124.123 120.389 124.529 120.666 125.046C120.942 125.563 121.089 126.089 121.089 127.427L121.089 129.059C121.089 130.398 120.941 130.923 120.665 131.44C120.388 131.957 119.982 132.363 119.465 132.639C118.948 132.916 118.423 133.063 117.084 133.063L94.999 133.059C93.6606 133.059 93.1351 132.912 92.6181 132.635C92.1011 132.359 91.6954 131.953 91.4189 131.436C91.1425 130.919 90.9953 130.393 90.9955 129.055L90.9958 127.423C90.996 126.084 91.1433 125.559 91.4199 125.042C91.6965 124.525 92.1024 124.119 92.6195 123.843C93.1365 123.566 93.6621 123.419 95.0005 123.419Z" fill="#FC8A3A"/>
<path d="M32.1121 43.5822C32.1144 41.2458 34.0103 39.3536 36.3486 39.3559L160.295 39.4786C162.632 39.481 164.525 41.3778 164.523 43.7134L164.517 49.8473L32.106 49.7161L32.1121 43.5822Z" fill="#E1E5F0"/>
<path d="M38.8978 47.2383C40.1244 47.2384 41.1189 46.2442 41.1191 45.0177C41.1193 43.7911 40.1251 42.7965 38.8985 42.7964C37.6719 42.7962 36.6774 43.7904 36.6772 45.017C36.677 46.2436 37.6712 47.2381 38.8978 47.2383Z" fill="#FF5645"/>
<path d="M46.3008 47.2392C47.5274 47.2394 48.5219 46.2452 48.5221 45.0186C48.5223 43.792 47.5281 42.7975 46.3015 42.7973C45.0749 42.7971 44.0804 43.7913 44.0802 45.0179C44.08 46.2445 45.0742 47.239 46.3008 47.2392Z" fill="#FFCB3D"/>
<path d="M53.9161 47.2402C55.1427 47.2404 56.1372 46.2462 56.1374 45.0196C56.1375 43.793 55.1433 42.7985 53.9167 42.7983C52.6902 42.7981 51.6956 43.7923 51.6955 45.0189C51.6953 46.2455 52.6895 47.24 53.9161 47.2402Z" fill="#3ABF7C"/>
</g>
<defs>
<clipPath id="clip0">
<rect width="188.64" height="238.944" fill="white" transform="translate(0.559937 0.575928)"/>
</clipPath>
</defs>
</svg>
